{
    "_links": {
        "self": {
            "href": "http:\/\/default\/faq1?_format=hal_json"
        },
        "type": {
            "href": "http:\/\/drupal.org\/rest\/type\/node\/faq"
        },
        "http:\/\/drupal.org\/rest\/relation\/node\/faq\/uid": [
            {
                "href": "http:\/\/default\/user\/1?_format=hal_json",
                "lang": "en"
            }
        ],
        "http:\/\/drupal.org\/rest\/relation\/node\/faq\/revision_uid": [
            {
                "href": "http:\/\/default\/user\/1?_format=hal_json"
            }
        ]
    },
    "nid": [
        {
            "value": 4
        }
    ],
    "uuid": [
        {
            "value": "374b0b54-452a-450d-aebb-179402ce0b35"
        }
    ],
    "vid": [
        {
            "value": 5
        }
    ],
    "langcode": [
        {
            "value": "en",
            "lang": "en"
        }
    ],
    "type": [
        {
            "target_id": "faq"
        }
    ],
    "status": [
        {
            "value": true,
            "lang": "en"
        }
    ],
    "title": [
        {
            "value": "How do I find my Windows product key?",
            "lang": "en"
        }
    ],
    "_embedded": {
        "http:\/\/drupal.org\/rest\/relation\/node\/faq\/uid": [
            {
                "_links": {
                    "self": {
                        "href": "http:\/\/default\/user\/1?_format=hal_json"
                    },
                    "type": {
                        "href": "http:\/\/drupal.org\/rest\/type\/user\/user"
                    }
                },
                "uuid": [
                    {
                        "value": "ebeeb479-84e9-4a35-bae5-c53c71109dc5"
                    }
                ],
                "lang": "en"
            }
        ],
        "http:\/\/drupal.org\/rest\/relation\/node\/faq\/revision_uid": [
            {
                "_links": {
                    "self": {
                        "href": "http:\/\/default\/user\/1?_format=hal_json"
                    },
                    "type": {
                        "href": "http:\/\/drupal.org\/rest\/type\/user\/user"
                    }
                },
                "uuid": [
                    {
                        "value": "ebeeb479-84e9-4a35-bae5-c53c71109dc5"
                    }
                ]
            }
        ]
    },
    "created": [
        {
            "value": 1496920948,
            "lang": "en"
        }
    ],
    "changed": [
        {
            "value": 1496921079,
            "lang": "en"
        }
    ],
    "promote": [
        {
            "value": false,
            "lang": "en"
        }
    ],
    "sticky": [
        {
            "value": false,
            "lang": "en"
        }
    ],
    "revision_timestamp": [
        {
            "value": 1496921079
        }
    ],
    "default_langcode": [
        {
            "value": true,
            "lang": "en"
        }
    ],
    "path": [
        {
            "alias": "\/faq1",
            "pid": 4,
            "lang": "en"
        }
    ],
    "body": [
        {
            "value": "<p>The product key is located inside the product packaging, on the receipt or confirmation page for a digital purchase or in a confirmation e-mail that shows you purchased Windows. If you purchased a digital copy from&nbsp;<a href=\"http:\/\/www.microsoftstore.com\/store\/msusa\/en_US\/home\">Microsoft Store<\/a>, you can locate your product key in your Account under Digital Content.<\/p>\r\n",
            "format": "basic_html",
            "summary": "",
            "lang": "en"
        }
    ]
}